…
p2018_df <- 
  read_excel("TW_data.xlsx", sheet = "2018 Precipitation", skip = 1, ) %>% 
  janitor::clean_names() %>% 
  na.omit() %>% 
  mutate(year = "2018") %>% 
  rename(prcp = total)

prcp_df <-  
  bind_rows(p2018_df, p2019_df)

prcp_df %>% 
  mutate(month = month.name[month])
```

    ## # A tibble: 24 × 3
    ##    month      prcp year 
    ##    <chr>     <dbl> <chr>
    ##  1 January    0.94 2018 
    ##  2 February   4.8  2018 
    ##  3 March      2.69 2018 
    ##  4 April      4.69 2018 
    ##  5 May        9.27 2018 
    ##  6 June       4.77 2018 
    ##  7 July      10.2  2018 
    ##  8 August     6.45 2018 
    ##  9 September 10.5  2018 
    ## 10 October    2.12 2018 
    ## # … with 14 more rows
…
